<?xml version="1.0" encoding="utf-8"?>
<!-- Generator: Adobe Illustrator 16.0.0, SVG Export Plug-In . SVG Version: 6.00 Build 0)  -->
<!DOCTYPE svg PUBLIC "-//W3C//DTD SVG 1.1//EN" "http://www.w3.org/Graphics/SVG/1.1/DTD/svg11.dtd">
<svg version="1.1" id="VEIT_x5F_logo" xmlns="http://www.w3.org/2000/svg" xmlns:xlink="http://www.w3.org/1999/xlink" x="0px"
	 y="0px" width="150px" height="64px" viewBox="565 368.172 150 64" enable-background="new 565 368.172 150 64"
	 xml:space="preserve">
<g>
	<rect id="bg" x="565" y="368.172" fill="#DC0000" width="150" height="64"/>
	<path id="electronics" fill="#FFFFFF" d="M602.601,417.972c0,1.24,0.119,1.633,1.17,1.633c0.941,0,1.264-0.213,1.264-1.012v-0.191
		h0.716v0.202c0,1.289-0.609,1.777-1.979,1.777c-1.491,0-1.992-0.644-1.992-2.422v-1.431c0-1.789,0.512-2.409,2.003-2.409
		c1.491,0,1.981,0.631,1.981,2.409v0.869h-3.162V417.972z M604.987,416.647v-0.381c0-1.073-0.237-1.431-1.192-1.431
		c-0.943,0-1.194,0.357-1.194,1.431v0.381H604.987L604.987,416.647z M609.865,411.471h0.775v8.804h-0.775V411.471z M615.66,417.972
		c0,1.24,0.119,1.633,1.168,1.633c0.943,0,1.266-0.213,1.266-1.012v-0.191h0.716v0.202c0,1.289-0.609,1.777-1.981,1.777
		c-1.491,0-1.99-0.644-1.99-2.422v-1.431c0-1.789,0.512-2.409,2.003-2.409c1.49,0,1.979,0.631,1.979,2.409v0.869h-3.161V417.972z
		 M618.045,416.647v-0.381c0-1.073-0.238-1.431-1.192-1.431c-0.943,0-1.193,0.357-1.193,1.431v0.381H618.045L618.045,416.647z
		 M626.704,418.294c0,1.48-0.574,2.088-1.896,2.088c-1.491,0-1.992-0.632-1.992-2.422v-1.431c0-1.789,0.512-2.409,2.003-2.409
		c1.266,0,1.754,0.523,1.754,1.788v0.3h-0.775v-0.108c0-0.884-0.288-1.203-1.062-1.203c-0.978,0-1.098,0.416-1.098,1.633v1.443
		c0,1.218,0.132,1.646,1.134,1.646c0.931,0,1.133-0.357,1.133-1.335v-0.239h0.8L626.704,418.294L626.704,418.294z M630.281,414.942
		v-0.716h0.631v-1.467h0.775v1.467h1.969v0.716h-1.969v3.46c0,0.895,0.048,1.276,0.728,1.276c0.537,0,0.703-0.286,0.703-0.919
		v-0.561h0.705v0.43c0,1.228-0.406,1.754-1.503,1.754c-1.132,0-1.408-0.525-1.408-1.742v-3.698H630.281L630.281,414.942z
		 M637.758,420.275v-6.049h0.716v0.788c0.298-0.621,0.752-0.894,1.419-0.894c0.906,0,1.253,0.512,1.253,1.646v0.466h-0.716v-0.287
		c0-0.812-0.191-1.157-0.763-1.157c-0.883,0-1.134,0.524-1.134,1.67v3.817H637.758L637.758,420.275z M646.951,420.382
		c-1.49,0-1.991-0.644-1.991-2.422v-1.431c0-1.789,0.513-2.409,2.004-2.409s1.98,0.631,1.98,2.409v1.431
		C648.945,419.75,648.443,420.382,646.951,420.382z M645.784,417.972c0,1.229,0.142,1.646,1.168,1.646
		c1.016,0,1.17-0.417,1.17-1.646v-1.443c0-1.228-0.145-1.633-1.17-1.633c-1.013,0-1.168,0.405-1.168,1.633V417.972z
		 M656.196,416.433c0-1.109-0.204-1.61-0.979-1.61c-0.978,0-1.251,0.669-1.251,2.063v3.388h-0.775v-6.048h0.716v0.704
		c0.31-0.55,0.799-0.811,1.479-0.811c1.169,0,1.586,0.644,1.586,2.099v4.057h-0.774V416.433L656.196,416.433z M661.24,411.626h0.775
		v1.014h-0.775V411.626z M661.24,414.226h0.775v6.049h-0.775V414.226z M670.075,418.294c0,1.48-0.571,2.088-1.896,2.088
		c-1.49,0-1.991-0.632-1.991-2.422v-1.431c0-1.789,0.513-2.409,2.004-2.409c1.265,0,1.754,0.523,1.754,1.788v0.3h-0.774v-0.108
		c0-0.884-0.287-1.203-1.062-1.203c-0.979,0-1.098,0.416-1.098,1.633v1.443c0,1.218,0.131,1.646,1.132,1.646
		c0.932,0,1.134-0.357,1.134-1.335v-0.239h0.798V418.294L670.075,418.294z M677.686,418.999c0,0.931-0.514,1.383-1.6,1.383h-0.68
		c-1.145,0-1.479-0.356-1.479-1.419v-0.62h0.765v0.369c0,0.702,0.083,0.953,0.787,0.953h0.536c0.633,0,0.86-0.201,0.86-0.762v-0.574
		c0-0.715-0.358-0.69-1.336-0.857c-1.111-0.191-1.54-0.287-1.54-1.158v-0.811c0-0.93,0.514-1.383,1.599-1.383h0.536
		c1.146,0,1.479,0.356,1.479,1.419v0.25h-0.765v-0.168c0-0.584-0.189-0.787-0.786-0.787h-0.395c-0.631,0-0.858,0.191-0.858,0.752
		v0.584c0,0.562,0.429,0.524,1.718,0.727c0.835,0.132,1.157,0.501,1.157,1.289L677.686,418.999L677.686,418.999z"/>
	<path id="VEIT" fill="#FFFFFF" d="M583.02,386.333L583.02,386.333l3.98-3.6l12.308,13.61l12.307-13.61l3.981,3.6l-16.287,18.01
		L583.02,386.333L583.02,386.333z M620.5,388.5h26v-5h-26V388.5L620.5,388.5z M655.5,403.5h6v-20h-6V403.5L655.5,403.5z
		 M696.5,383.5h-26v5h10v15h5v-15h11V383.5z M620.5,403.5h26v-5h-26V403.5L620.5,403.5z M620.5,395.5h14v-4h-14V395.5L620.5,395.5z"
		/>
</g>
</svg>
